master:   M1-M2------M3-----M4-----M5-----M6
feature1:      F1A---F1B-----F1C
feature2:  F2A---F2B-----F2C---F2D-----F2E---F2F-----F2G---F2H-----F2I---F2J-----F2K---F2L

connect M2-F1A
connect F1C-M5
connect M1-F2L

connect F1B-F2H


